<?xml version="1.0" encoding="UTF-8" standalone="no"?>
<svg
   xmlns:dc="http://purl.org/dc/elements/1.1/"
   xmlns:cc="http://creativecommons.org/ns#"
   xmlns:rdf="http://www.w3.org/1999/02/22-rdf-syntax-ns#"
   xmlns:svg="http://www.w3.org/2000/svg"
   xmlns="http://www.w3.org/2000/svg"
   width="40"
   height="40"
   viewBox="0 0 40 40"
   fill="none"
   version="1.1"
   id="svg10">
  <metadata
     id="metadata16">
    <rdf:RDF>
      <cc:Work
         rdf:about="">
        <dc:format>image/svg+xml</dc:format>
        <dc:type
           rdf:resource="http://purl.org/dc/dcmitype/StillImage" />
        <dc:title></dc:title>
      </cc:Work>
    </rdf:RDF>
  </metadata>
  <defs
     id="defs14" />
  <g
     id="g22"
     transform="translate(-0.27585,-0.650754)">
    <path
       d="m 11.752,12.1174 v 2.1331 h 17.0477 v -2.1331 z"
       fill="#527b89"
       id="path4" />
    <path
       d="m 11.75205,19.6348 v 2.1331 h 17.0476 v -2.1331 z"
       fill="#527b89"
       id="path6" />
    <path
       d="m 11.752,27.0509 v 2.1332 h 17.0477 v -2.1332 z"
       fill="#527b89"
       id="path8" />
  </g>
</svg>
