<svg width="24" height="24" viewBox="0 0 24 24" fill="none" xmlns="http://www.w3.org/2000/svg">
<path fill-rule="evenodd" clip-rule="evenodd" d="M12.8165 13.161C13.2401 15.3789 12.2491 17.7184 10.1833 18.9111C7.57316 20.418 4.23558 19.5237 2.72861 16.9136C1.22164 14.3034 2.11594 10.9659 4.72609 9.45889C6.79191 8.26619 9.31341 8.57766 11.0224 10.0535C11.0992 9.99021 11.1822 9.93241 11.2712 9.88101L18.7542 5.56071C19.6243 5.05839 20.7368 5.35649 21.2391 6.22654C21.7414 7.09658 21.4433 8.20911 20.5733 8.71144L20.687 8.90836C21.2521 9.88716 20.9167 11.1388 19.9379 11.7039C18.9591 12.269 17.7075 11.9336 17.1424 10.9548L17.0287 10.7579L13.0903 13.0317C13.0013 13.0831 12.9097 13.1262 12.8165 13.161ZM9.4239 13.0481C10.0518 14.1356 9.67917 15.5263 8.59162 16.1542C7.50406 16.7821 6.1134 16.4095 5.48549 15.3219C4.85759 14.2343 5.23022 12.8437 6.31778 12.2158C7.40533 11.5879 8.796 11.9605 9.4239 13.0481Z" fill="#434343"/>
</svg>
