<svg width="24" height="24" viewBox="0 0 24 24" fill="none" xmlns="http://www.w3.org/2000/svg">
<path d="M10.8748 3.95066C9.51846 3.95066 8.39624 5.07292 8.39624 6.42923V7.62898H5.1915C4.33594 7.62898 3.64745 8.31755 3.64745 9.17303V17.8606C3.64745 18.7161 4.33594 19.4046 5.1915 19.4046H18.8082C19.6637 19.4046 20.3523 18.7161 20.3523 17.8606V9.17303C20.3523 8.31755 19.6637 7.62898 18.8082 7.62898H15.6025V6.42923C15.6025 5.07292 14.4841 3.95066 13.1278 3.95066H10.8748ZM10.8748 5.81683H13.1278C13.482 5.81683 13.7363 6.07456 13.7363 6.42923V7.62898H10.2625V6.42923C10.2625 6.07455 10.5206 5.81683 10.8748 5.81683Z" fill="#434343"/>
</svg>
