<?xml version="1.0" encoding="UTF-8" standalone="no"?>
<svg
   xmlns:dc="http://purl.org/dc/elements/1.1/"
   xmlns:cc="http://creativecommons.org/ns#"
   xmlns:rdf="http://www.w3.org/1999/02/22-rdf-syntax-ns#"
   xmlns:svg="http://www.w3.org/2000/svg"
   xmlns="http://www.w3.org/2000/svg"
   id="svg4118"
   viewBox="0 0 6.77333280417 6.77333280417"
   height="6.77333280417mm"
   width="6.77333280417mm"
   version="1.1">
  <defs
     id="defs21" />
  <metadata
     id="metadata4115">
    <rdf:RDF>
      <cc:Work
         rdf:about="">
        <dc:format>image/svg+xml</dc:format>
        <dc:type
           rdf:resource="http://purl.org/dc/dcmitype/StillImage" />
        <dc:title />
      </cc:Work>
    </rdf:RDF>
  </metadata>
  <g
     id="g18"
     transform="matrix(1.000000,0.000000,0.000000,1.000000,-81.610864,-30.390936)">
    <g
       style="display:inline"
       id="doc"
       transform="matrix(1.163651,0,0,1.163651,-313.52951,89.607723)">
      <g
         id="g5897">
        <rect
           style="color:#000000;clip-rule:nonzero;display:inline;overflow:visible;visibility:visible;opacity:1;isolation:auto;mix-blend-mode:normal;color-interpolation:sRGB;color-interpolation-filters:linearRGB;solid-color:#000000;solid-opacity:1;fill:none;fill-opacity:1;fill-rule:nonzero;stroke:none;stroke-width:1.53989375;stroke-linecap:butt;stroke-linejoin:miter;stroke-miterlimit:4;stroke-dasharray:none;stroke-dashoffset:0;stroke-opacity:1;marker:none;paint-order:stroke fill markers;color-rendering:auto;image-rendering:auto;shape-rendering:auto;text-rendering:auto;enable-background:accumulate"
           id="rect5874"
           width="5.8207598"
           height="5.8207598"
           x="339.56949"
           y="-50.888786" />
        <path
           style="color:#000000;display:inline;overflow:visible;visibility:visible;opacity:1;vector-effect:none;fill:#434343;fill-opacity:1;fill-rule:nonzero;stroke:none;stroke-width:0.23007283;stroke-linecap:butt;stroke-linejoin:miter;stroke-miterlimit:4;stroke-dasharray:none;stroke-dashoffset:0;stroke-opacity:1;marker:none;enable-background:accumulate"
           d="m 341.09799,-50.160461 c -0.22163,0 -0.40025,0.178061 -0.40025,0.399694 v 3.564445 c 0,0.221634 0.17862,0.39997 0.40025,0.39997 h 2.76395 c 0.22163,0 0.39997,-0.178336 0.39997,-0.39997 v -3.564445 c 0,-0.221633 -0.17834,-0.399694 -0.39997,-0.399694 z m 0.0369,0.436631 h 2.6909 v 3.490296 h -2.6909 z m 0.32941,0.421472 v 0.327196 h 2.01804 v -0.327196 z m 0,0.54055 v 0.327198 h 2.01804 v -0.327198 z m 0,0.540552 v 0.326924 h 1.48519 v -0.326924 z m 0,0.806556 v 0.821991 h 0.96064 V -47.4147 Z m 1.14946,0 v 0.821991 h 0.92867 V -47.4147 Z"
           id="path5868" />
      </g>
    </g>
  </g>
</svg>
