<?xml version="1.0" encoding="UTF-8" standalone="no"?>
<svg
   xmlns:dc="http://purl.org/dc/elements/1.1/"
   xmlns:cc="http://creativecommons.org/ns#"
   xmlns:rdf="http://www.w3.org/1999/02/22-rdf-syntax-ns#"
   xmlns:svg="http://www.w3.org/2000/svg"
   xmlns="http://www.w3.org/2000/svg"
   id="svg4118"
   viewBox="0 0 5.99999990625 5.99999990625"
   height="5.99999990625mm"
   width="5.99999990625mm"
   version="1.1">
  <defs
     id="defs323" />
  <metadata
     id="metadata4115">
    <rdf:RDF>
      <cc:Work
         rdf:about="">
        <dc:format>image/svg+xml</dc:format>
        <dc:type
           rdf:resource="http://purl.org/dc/dcmitype/StillImage" />
        <dc:title />
      </cc:Work>
    </rdf:RDF>
  </metadata>
  <g
     id="g320"
     transform="translate(-118.52985,-27.38969)">
    <g
       transform="matrix(0.91880411,0,0,0.91880411,-458.43909,90.648813)"
       id="question-mark"
       style="display:inline;opacity:1;stroke-width:0.86376101">
      <g
         style="stroke-width:0.86376101"
         transform="translate(411.03569,-72.699758)"
         id="g40030">
        <g
           id="g40028"
           transform="matrix(0.92000001,0,0,0.92000001,-278.19226,67.453015)"
           style="display:inline;stroke-width:0.86376101">
          <g
             style="stroke-width:0.86376101"
             transform="translate(8.2020829)"
             id="g40026">
            <path
               id="circle40020"
               d="m 537.06228,-65.584297 a 3.5490367,3.5490367 0 0 1 -3.54904,3.549037 3.5490367,3.5490367 0 0 1 -3.54903,-3.549037 3.5490367,3.5490367 0 0 1 3.54903,-3.549037 3.5490367,3.5490367 0 0 1 3.54904,3.549037 z"
               style="color:#000000;display:inline;overflow:visible;visibility:visible;fill:none;fill-opacity:1;fill-rule:nonzero;stroke:none;stroke-width:0.33987966px;marker:none;enable-background:accumulate" />
            <g
               aria-label="?"
               style="font-style:normal;font-variant:normal;font-weight:normal;font-stretch:normal;font-size:4.23333311px;line-height:5.29166651px;font-family:Lato;-inkscape-font-specification:'Lato, Normal';text-align:start;letter-spacing:0px;word-spacing:0px;writing-mode:lr-tb;text-anchor:start;fill:#ffffff;fill-opacity:1;stroke:none;stroke-width:0.86376101"
               id="g40024"
               transform="matrix(1.4009472,0,0,1.4009472,-212.02282,26.529828)">
              <path
                 d="m 531.42135,-66.868215 q 0.0715,-0.05998 0.15477,-0.112212 0.0851,-0.05224 0.18187,-0.09093 0.0967,-0.04062 0.20701,-0.06191 0.11221,-0.02321 0.24184,-0.02321 0.18185,0 0.32696,0.04837 0.14703,0.04837 0.24957,0.139298 0.10258,0.089 0.1567,0.216685 0.0561,0.125754 0.0561,0.28053 0,0.148971 -0.0406,0.255378 -0.0406,0.106403 -0.10447,0.18573 -0.0619,0.07932 -0.13737,0.137362 -0.0735,0.05611 -0.14123,0.106414 -0.0658,0.05029 -0.11607,0.09867 -0.0483,0.04837 -0.06,0.108343 l -0.0542,0.270855 h -0.41015 l -0.0426,-0.311484 q -0.002,-0.01161 -0.003,-0.02321 0,-0.01161 0,-0.02321 0,-0.08512 0.0406,-0.14897 0.0406,-0.06385 0.10247,-0.116082 0.0619,-0.05418 0.1335,-0.102543 0.0715,-0.0503 0.1335,-0.106413 0.0619,-0.05804 0.10258,-0.127689 0.0406,-0.07159 0.0406,-0.168317 0,-0.116081 -0.0774,-0.183797 -0.0755,-0.06965 -0.20894,-0.06965 -0.10248,0 -0.17218,0.02128 -0.0678,0.02128 -0.11803,0.04836 -0.0484,0.02515 -0.0851,0.04644 -0.0367,0.02128 -0.0735,0.02128 -0.0832,0 -0.12382,-0.07159 z m 0.35599,2.257779 q 0,-0.06965 0.0252,-0.129625 0.0271,-0.05998 0.0715,-0.104472 0.0465,-0.04449 0.10836,-0.06965 0.0619,-0.02708 0.13544,-0.02708 0.0715,0 0.13349,0.02708 0.0619,0.02515 0.10836,0.06965 0.0465,0.0445 0.0715,0.104472 0.0271,0.05998 0.0271,0.129625 0,0.06965 -0.0271,0.131559 -0.0252,0.05998 -0.0715,0.104472 -0.0465,0.04449 -0.10836,0.06965 -0.0619,0.02515 -0.13349,0.02515 -0.0735,0 -0.13544,-0.02515 -0.0619,-0.02515 -0.10836,-0.06965 -0.0445,-0.04449 -0.0715,-0.104472 -0.0252,-0.06191 -0.0252,-0.131559 z"
                 style="font-style:normal;font-variant:normal;font-weight:900;font-stretch:normal;font-family:Lato;-inkscape-font-specification:'Lato Heavy';opacity:1;vector-effect:none;fill:#f9f9f9;fill-opacity:1;stroke:none;stroke-width:1.42186379;stroke-linecap:butt;stroke-linejoin:miter;stroke-miterlimit:4;stroke-dasharray:none;stroke-dashoffset:0;stroke-opacity:1;marker:none;paint-order:stroke fill markers"
                 id="path40022" />
            </g>
          </g>
        </g>
      </g>
    </g>
  </g>
</svg>
